1 43069
0 94148
1 17009
0 10308
0 71076
0 48117
0 61701
1 39972
1 54095
1 79115
0 92226
1 22998
0 31041
1 93743
0 11618
0 1183
0 76271
1 14698
0 20434
0 86935
1 99765
0 14389
0 20089
0 59340
0 79316
0 34745
0 88903
0 96033
1 49203
1 43138
0 79817
1 41187
0 2493
1 76984
1 61836
1 89852
0 16936
1 64762
1 88421
1 20311
1 91055
0 72349
0 81157
0 9915
0 82369
1 81970
0 94454
1 52147
0 99650
0 57860
1 88595
0 37642
1 23515
1 47268
0 50228
1 11547
0 74474
1 97750
1 95480
0 53240
1 23990
0 6790
0 63802
1 84847
1 62741
0 4131
1 71143
1 934
1 991
1 28813
1 50800
1 62003
0 97054
1 79354
0 39801
0 27110
1 73727
0 15353
0 13086
1 66774
0 13378
0 50099
0 19530
0 16062
0 2777
1 57216
0 18519
0 92279
1 19700
0 15274
1 49589
1 99529
1 73417
1 69702
0 20107
1 34925
0 49765
0 58146
0 1174
1 12881
